[
    {
        "id": "4c626862-cde7-4d73-87ec-234661de4ab4",
        "message": "Favor seleccionar la opcion que deseas acceder",
        "opcion": "Nomina",
        "idFather": "",
        "respond": "0",
        "result": ""
    },
    {
        "id": "1646b309-32b1-4e50-a25b-b3b5de9f47a1",
        "message": "Favor seleccionar la opcion que deseas acceder",
        "opcion": "Liquidación definitiva",
        "idFather": "4c626862-cde7-4d73-87ec-234661de4ab4",
        "respond": "0",
        "result": ""
    },
    {
        "id": "166c63d1-63a5-4bc1-a9a3-52a2d130aa3f",
        "message": "Favor seleccionar la opcion que deseas acceder",
        "opcion": "Seguridad Social",
        "idFather": "4c626862-cde7-4d73-87ec-234661de4ab4",
        "respond": "0",
        "result": "",
        "numero": 2
    },
    {
        "id": "ccb82601-cde4-4f35-b0a7-4d4b297d4e3d",
        "message": "Favor seleccionar la opcion que deseas acceder",
        "opcion": "Gestion Humana",
        "idFather": "",
        "respond": "0",
        "result": "",
        "numero": 2
    },
    {
        "id": "69747bce-861d-4e3e-b4ca-c1cc75916da5",
        "message": "Favor seleccionar la opcion que deseas acceder",
        "opcion": "Acceso",
        "idFather": "",
        "respond": "0",
        "result": "",
        "numero": 3
    },
    {
        "id": "a45a9a75-f12d-4294-ba85-c25e9136253a",
        "message": "Favor seleccionar la opcion que deseas acceder",
        "opcion": "Otros temas tecnicos",
        "idFather": "",
        "respond": "0",
        "result": "",
        "numero": 4
    },
    {
        "id": "f35e6a87-abe5-4760-9f30-47b5ec8b4f72",
        "message": "Favor seleccionar la opcion que deseas acceder",
        "opcion": "Posventa",
        "idFather": "",
        "respond": "0",
        "result": "",
        "numero": 5
    },
    {
        "id": "a09a2098-5545-460e-81e9-7a92e7c27509",
        "message": "Favor seleccionar la opcion que deseas acceder",
        "opcion": "Interfaz contable",
        "idFather": "4c626862-cde7-4d73-87ec-234661de4ab4",
        "respond": "0",
        "result": "",
        "numero": 3
    },
    {
        "id": "9a6bf5c3-4424-416d-ae58-a5c259165ca0",
        "message": "Favor seleccionar la opcion que deseas acceder",
        "opcion": "Reforma pensional",
        "idFather": "166c63d1-63a5-4bc1-a9a3-52a2d130aa3f",
        "respond": "0",
        "result": ""
    },
    {
        "id": "13a80f8e-8a10-43ab-a1f2-71b38df98c88",
        "message": "Favor seleccionar la opcion que deseas acceder",
        "opcion": "Liquidacion de nomina",
        "idFather": "4c626862-cde7-4d73-87ec-234661de4ab4",
        "respond": "0",
        "result": ""
    },
    {
        "id": "b4da8861-62d9-46c1-9599-88b37b9bbed0",
        "message": "Favor seleccionar la opcion que deseas acceder",
        "opcion": "Retencion en la fuente",
        "idFather": "4c626862-cde7-4d73-87ec-234661de4ab4",
        "respond": "0",
        "result": ""
    },
    {
        "id": "6a93d311-2073-42a5-beaf-7143ae89ceb5",
        "message": "Favor seleccionar la opcion que deseas acceder",
        "opcion": "Recalculo",
        "idFather": "4c626862-cde7-4d73-87ec-234661de4ab4",
        "respond": "0",
        "result": ""
    },
    {
        "id": "8e494ac8-7ca0-4773-9590-5d4db44df6b9",
        "message": "Favor seleccionar la opcion que deseas acceder",
        "opcion": "Liquidacion de vacaciones",
        "idFather": "4c626862-cde7-4d73-87ec-234661de4ab4",
        "respond": "0",
        "result": ""
    },
    {
        "id": "6333bd74-400c-4699-88f5-c641605c8b0f",
        "message": "Favor seleccionar la opcion que deseas acceder",
        "opcion": "Ley 1393",
        "idFather": "166c63d1-63a5-4bc1-a9a3-52a2d130aa3f",
        "respond": "0",
        "result": ""
    },
    {
        "id": "18c6e767-724d-4070-ae1b-e0b4d0ede142",
        "message": "Favor seleccionar la opcion que deseas acceder",
        "opcion": "Planilla",
        "idFather": "166c63d1-63a5-4bc1-a9a3-52a2d130aa3f",
        "respond": "0",
        "result": ""
    },
    {
        "id": "81727f13-77c8-44b3-a717-a826bc74cda3",
        "message": "Favor seleccionar la opcion que deseas acceder",
        "opcion": "Autoliquidacion",
        "idFather": "166c63d1-63a5-4bc1-a9a3-52a2d130aa3f",
        "respond": "0",
        "result": ""
    },
    {
        "id": "cbc445ef-96df-4452-b5e9-4f57b7a2d83d",
        "message": "Favor seleccionar la opcion que deseas acceder",
        "opcion": "Liberacion SP",
        "idFather": "9a6bf5c3-4424-416d-ae58-a5c259165ca0",
        "respond": "0",
        "result": ""
    },
    {
        "id": "5278e3ac-0f2d-40b5-83f8-278d78fd4f88",
        "message": "Favor seleccionar la opcion que deseas acceder",
        "opcion": "Piso de proteccion social",
        "idFather": "9a6bf5c3-4424-416d-ae58-a5c259165ca0",
        "respond": "0",
        "result": ""
    },
    {
        "id": "cc4d8e2c-432f-4677-984a-8c73c02d8a3d",
        "message": "Favor seleccionar la opcion que deseas acceder",
        "opcion": "No liquida las vacaciones ",
        "idFather": "8e494ac8-7ca0-4773-9590-5d4db44df6b9",
        "respond": "0",
        "result": ""
    },
    {
        "id": "18e43403-552f-4f6f-bef5-aedcd7227bb7",
        "message": "Favor seleccionar la opcion que deseas acceder",
        "opcion": "No liquida vacaciones colectivas",
        "idFather": "8e494ac8-7ca0-4773-9590-5d4db44df6b9",
        "respond": "0",
        "result": ""
    },
    {
        "id": "dd723118-0ca1-427f-924f-bfd37b7794ab",
        "message": "Favor seleccionar la opcion que deseas acceder",
        "opcion": "Como se solicitan vacaciones colectivas por el Smartpeople",
        "idFather": "8e494ac8-7ca0-4773-9590-5d4db44df6b9",
        "respond": "0",
        "result": ""
    },
    {
        "id": "2f5cddb2-c4ac-4085-8b22-5d88d6c24fb4",
        "message": "Favor seleccionar la opcion que deseas acceder",
        "opcion": "No existe la funcionalidad de programar  vacaciones colectivas por el smartpeople",
        "idFather": "dd723118-0ca1-427f-924f-bfd37b7794ab",
        "respond": "0",
        "result": ""
    },
    {
        "id": "13c4849a-9624-43bf-9ece-48c12fc62225",
        "message": "Favor seleccionar la opcion que deseas acceder",
        "opcion": "Se debe realizar el proceso por medio del  liquidador por medio de la opcion vacaciones",
        "idFather": "dd723118-0ca1-427f-924f-bfd37b7794ab",
        "respond": "0",
        "result": ""
    },
    {
        "id": "49572b83-d389-451d-a955-5e51be0d5729",
        "message": "Favor seleccionar la opcion que deseas acceder",
        "opcion": "Ninguna de las anteriores",
        "idFather": "dd723118-0ca1-427f-924f-bfd37b7794ab",
        "respond": "0",
        "result": ""
    },
    {
        "id": "cdeafaa2-ea3b-4a4f-b1ff-2a3a7d4f2e2b",
        "message": "Favor seleccionar la opcion que deseas acceder",
        "opcion": "Se debe realizar el proceso por medio del liquidador  por medio de la opcion vacaciones colectivas  haciendo el filtro de selección",
        "idFather": "13c4849a-9624-43bf-9ece-48c12fc62225",
        "respond": "0",
        "result": ""
    },
    {
        "id": "a6309ef8-f84a-4d1f-a319-e8228c0529d5",
        "message": "Favor seleccionar la opcion que deseas acceder",
        "opcion": "Buen dia fue un gusto apoyarte te esperamos en proximas oportunidades",
        "idFather": "13c4849a-9624-43bf-9ece-48c12fc62225",
        "respond": "0",
        "result": ""
    },
    {
        "id": "b1cab5fa-c629-462d-a634-1cf1a36a430f",
        "message": "Favor seleccionar la opcion que deseas acceder",
        "opcion": "Evaluacion de desempeño",
        "idFather": "ccb82601-cde4-4f35-b0a7-4d4b297d4e3d",
        "respond": "0",
        "result": ""
    },
    {
        "id": "72d1cb6e-7983-4ae7-93ef-f5b765d0681d",
        "message": "Favor seleccionar la opcion que deseas acceder",
        "opcion": "Analisis de cargos",
        "idFather": "ccb82601-cde4-4f35-b0a7-4d4b297d4e3d",
        "respond": "0",
        "result": ""
    },
    {
        "id": "77cbb8aa-37a3-4040-8673-fa266db82ad4",
        "message": "Favor seleccionar la opcion que deseas acceder",
        "opcion": "Bienestar y beneficios",
        "idFather": "ccb82601-cde4-4f35-b0a7-4d4b297d4e3d",
        "respond": "0",
        "result": ""
    },
    {
        "id": "b812ac37-a886-4cf5-95dc-e676de64b572",
        "message": "Favor seleccionar la opcion que deseas acceder",
        "opcion": "Formacion y desarrollo",
        "idFather": "ccb82601-cde4-4f35-b0a7-4d4b297d4e3d",
        "respond": "0",
        "result": ""
    },
    {
        "id": "99f7214c-44ae-4cf1-ad9a-c8e41009436d",
        "message": "Favor seleccionar la opcion que deseas acceder",
        "opcion": "Reclutamiento y selección",
        "idFather": "ccb82601-cde4-4f35-b0a7-4d4b297d4e3d",
        "respond": "0",
        "result": ""
    },
    {
        "id": "9d3b35ad-88c7-4c7c-aa5c-3f897110531f",
        "message": "Favor seleccionar la opcion que deseas acceder",
        "opcion": "Smartpeople",
        "idFather": "ccb82601-cde4-4f35-b0a7-4d4b297d4e3d",
        "respond": "0",
        "result": ""
    },
    {
        "id": "6c7834b1-f52c-4649-9b93-3c064abbf0bc",
        "message": "Favor seleccionar la opcion que deseas acceder",
        "opcion": "No lleva el calculo de los cargos  con la planta",
        "idFather": "72d1cb6e-7983-4ae7-93ef-f5b765d0681d",
        "respond": "0",
        "result": ""
    },
    {
        "id": "7ca1976c-3d27-4461-bac6-28953f38e47e",
        "message": "Favor seleccionar la opcion que deseas acceder",
        "opcion": "No lleva el control de los cargos ",
        "idFather": "72d1cb6e-7983-4ae7-93ef-f5b765d0681d",
        "respond": "0",
        "result": ""
    },
    {
        "id": "fe2d23d9-ec50-494c-a2de-56af55385c0c",
        "message": "Favor seleccionar la opcion que deseas acceder",
        "opcion": "No activa el cargo",
        "idFather": "72d1cb6e-7983-4ae7-93ef-f5b765d0681d",
        "respond": "0",
        "result": ""
    },
    {
        "id": "5391fab8-f217-4f39-b230-648be56c1b41",
        "message": "Favor seleccionar la opcion que deseas acceder",
        "opcion": "No activa el rol y el cargo",
        "idFather": "72d1cb6e-7983-4ae7-93ef-f5b765d0681d",
        "respond": "0",
        "result": ""
    },
    {
        "id": "1872bb60-c03d-424d-b88e-407841adc44d",
        "message": "Favor seleccionar la opcion que deseas acceder",
        "opcion": "KNMCONTR con los cargos  asociados",
        "idFather": "6c7834b1-f52c-4649-9b93-3c064abbf0bc",
        "respond": "0",
        "result": ""
    },
    {
        "id": "eb681cc0-ce29-4f04-87bc-3fa85655f856",
        "message": "Favor seleccionar la opcion que deseas acceder",
        "opcion": "KBICARGO con los cargos existentes  o plazas aprobadas",
        "idFather": "6c7834b1-f52c-4649-9b93-3c064abbf0bc",
        "respond": "0",
        "result": ""
    },
    {
        "id": "e4213f0f-a300-4bee-b99e-1361a290f831",
        "message": "Favor seleccionar la opcion que deseas acceder",
        "opcion": "Los dos puntos anteriores se debieron actualizar  despues de la migracion por base de datos para  dejar cuadrado estos dos valores",
        "idFather": "6c7834b1-f52c-4649-9b93-3c064abbf0bc",
        "respond": "0",
        "result": ""
    },
    {
        "id": "b2c8fb8b-1a28-42d5-8a38-7481426fc932",
        "message": "Favor seleccionar la opcion que deseas acceder",
        "opcion": "Si se utiliza KACPLANT deben estar creadas las plazas  disponibles y deben ser las mismas que estan disponibles  con KBICARGO y hacer el proceso de descuento  de la vacantes desde KACNOVED y el proceso de ocupacion  del proceso de seleccion desde KSLTRADA",
        "idFather": "6c7834b1-f52c-4649-9b93-3c064abbf0bc",
        "respond": "0",
        "result": ""
    },
    {
        "id": "e2b67944-3b16-4b21-bc3f-9fca4575e8b8",
        "message": "Favor seleccionar la opcion que deseas acceder",
        "opcion": "Se debe habilitar un chek para el control automatico  en KNMEPARC en la pestaña generales que se  llama Control de cargos ocupados, este debe  estar marcado para el control automatico,  pero teniendo en cuenta los pasos anteriores.",
        "idFather": "6c7834b1-f52c-4649-9b93-3c064abbf0bc",
        "respond": "0",
        "result": ""
    },
    {
        "id": "ee1ad078-0858-4dc3-8585-537a9c2cf3d2",
        "message": "Favor seleccionar la opcion que deseas acceder",
        "opcion": "Buen dia fue un gusto apoyarte te  esperamos en proximas oportunidades",
        "idFather": "e2b67944-3b16-4b21-bc3f-9fca4575e8b8",
        "respond": "0",
        "result": ""
    },
    {
        "id": "fae936c7-28e0-4b22-835e-6ef2eef38e71",
        "message": "Favor seleccionar la opcion que deseas acceder",
        "opcion": "Acceso al Smartpeople",
        "idFather": "69747bce-861d-4e3e-b4ca-c1cc75916da5",
        "respond": "0",
        "result": ""
    },
    {
        "id": "3ceed85e-4de8-454c-8c72-574f6ba9debf",
        "message": "Favor seleccionar la opcion que deseas acceder",
        "opcion": "Acceso al menuweb",
        "idFather": "69747bce-861d-4e3e-b4ca-c1cc75916da5",
        "respond": "0",
        "result": ""
    },
    {
        "id": "33734970-7b78-4caa-ab0e-792ab22dc750",
        "message": "Favor seleccionar la opcion que deseas acceder",
        "opcion": "Acceso a programa",
        "idFather": "69747bce-861d-4e3e-b4ca-c1cc75916da5",
        "respond": "0",
        "result": ""
    },
    {
        "id": "99019337-f8f1-437e-aa4f-eb85548de6b3",
        "message": "Favor seleccionar la opcion que deseas acceder",
        "opcion": "Incidencia de campos o tablas",
        "idFather": "fae936c7-28e0-4b22-835e-6ef2eef38e71",
        "respond": "0",
        "result": ""
    },
    {
        "id": "b80d62b1-cc94-4cb7-958d-4cc0e18994d3",
        "message": "Favor seleccionar la opcion que deseas acceder",
        "opcion": "Colaborador no se encuentra activo",
        "idFather": "fae936c7-28e0-4b22-835e-6ef2eef38e71",
        "respond": "0",
        "result": ""
    },
    {
        "id": "69333211-48dd-49ab-8f00-722731253848",
        "message": "Favor seleccionar la opcion que deseas acceder",
        "opcion": "Ingreso directorio activo",
        "idFather": "fae936c7-28e0-4b22-835e-6ef2eef38e71",
        "respond": "0",
        "result": ""
    },
    {
        "id": "9a139a27-97a8-47a1-9619-263361db946a",
        "message": "Favor seleccionar la opcion que deseas acceder",
        "opcion": "Se verifica que en el programa KGNACCAj en el campo  Usuario Windows este el usuario sin incluir dominio, ejemplo",
        "idFather": "69333211-48dd-49ab-8f00-722731253848",
        "respond": "0",
        "result": ""
    },
    {
        "id": "a1c585bd-7a3f-47c5-a46a-2f37cfe89bd9",
        "message": "Favor seleccionar la opcion que deseas acceder",
        "opcion": "Se valida en el programa KNMCONTR en la pestaña Clasificación del colaborador,  el numero asignado en el identificador debe corresponder al que aparece en el  árbol de nomina asignado que se visualiza en esta pestaña.",
        "idFather": "69333211-48dd-49ab-8f00-722731253848",
        "respond": "0",
        "result": ""
    },
    {
        "id": "3333acb0-8060-4115-a36a-ceb1cdb5c96c",
        "message": "Favor seleccionar la opcion que deseas acceder",
        "opcion": "Se debe asignar identificador existente, guardar cambios  y valida en el Self service",
        "idFather": "69333211-48dd-49ab-8f00-722731253848",
        "respond": "0",
        "result": ""
    },
    {
        "id": "ce81dbf3-98a3-44c4-8d3c-36e7b3140435",
        "message": "Favor seleccionar la opcion que deseas acceder",
        "opcion": "Ninguna de las anteriores",
        "idFather": "69333211-48dd-49ab-8f00-722731253848",
        "respond": "0",
        "result": ""
    },
    {
        "id": "a57db331-017a-48c4-a92d-9b2e1ba9a10c",
        "message": "Favor seleccionar la opcion que deseas acceder",
        "opcion": "ventas",
        "idFather": "4c626862-cde7-4d73-87ec-234661de4ab4",
        "respond": "0",
        "result": ""
    }
]